#
# A fatal error has been detected by the Java Runtime Environment:
#
#  Internal Error (javaClasses.cpp:126), pid=7712, tid=5428
#  fatal error: Invalid layout of preloaded class
#
# JRE version:  (8.0_20-b26) (build )
# Java VM: Java HotSpot(TM) 64-Bit Server VM (25.20-b23 mixed mode windows-amd64 compressed oops)
# Failed to write core dump. Minidumps are not enabled by default on client versions of Windows
#
# If you would like to submit a bug report, please visit:
#   http://bugreport.sun.com/bugreport/crash.jsp
#

---------------  T H R E A D  ---------------

Current thread (0x000000000101e000):  JavaThread "Unknown thread" [_thread_in_vm, id=5428, stack(0x0000000002b30000,0x0000000002c30000)]

Stack: [0x0000000002b30000,0x0000000002c30000]
Native frames: (J=compiled Java code, j=interpreted, Vv=VM code, C=native code)
V  [jvm.dll+0x3152fa]
V  [jvm.dll+0x265d03]
V  [jvm.dll+0x266943]
V  [jvm.dll+0x25e1e6]
V  [jvm.dll+0x5e64c]
V  [jvm.dll+0x5e743]
V  [jvm.dll+0x7316a]
V  [jvm.dll+0x734c8]
V  [jvm.dll+0xe3937]
V  [jvm.dll+0xe3cc6]
V  [jvm.dll+0x1f89d7]
V  [jvm.dll+0x229fc4]
V  [jvm.dll+0x14c6f1]
C  [javaw.exe+0x20c6]
C  [javaw.exe+0xc9eb]
C  [javaw.exe+0xca7f]
C  [KERNEL32.DLL+0x16ad]
C  [ntdll.dll+0x54409]


---------------  P R O C E S S  ---------------

Java Threads: ( => current thread )

Other Threads:

=>0x000000000101e000 (exited) JavaThread "Unknown thread" [_thread_in_vm, id=5428, stack(0x0000000002b30000,0x0000000002c30000)]

VM state:not at safepoint (not fully initialized)

VM Mutex/Monitor currently owned by a thread: None

GC Heap History (0 events):
No events

Deoptimization events (0 events):
No events

Internal exceptions (0 events):
No events

Events (10 events):
Event: 0.012 loading class java/lang/CharSequence done
Event: 0.012 loading class java/lang/String done
Event: 0.012 loading class java/lang/Class
Event: 0.012 loading class java/lang/reflect/AnnotatedElement
Event: 0.012 loading class java/lang/reflect/AnnotatedElement done
Event: 0.012 loading class java/lang/reflect/GenericDeclaration
Event: 0.012 loading class java/lang/reflect/GenericDeclaration done
Event: 0.012 loading class java/lang/reflect/Type
Event: 0.012 loading class java/lang/reflect/Type done
Event: 0.012 loading class java/lang/Class done


Dynamic libraries:
0x00007ff7cc1c0000 - 0x00007ff7cc1f4000 	C:\Program Files\Java\jre1.8.0_20\bin\javaw.exe
0x00007ff95be60000 - 0x00007ff95c006000 	C:\Windows\SYSTEM32\ntdll.dll
0x00007ff959e10000 - 0x00007ff959f4a000 	C:\Windows\system32\KERNEL32.DLL
0x00007ff9595e0000 - 0x00007ff9596ef000 	C:\Windows\system32\KERNELBASE.dll
0x00007ff957de0000 - 0x00007ff957e68000 	C:\Windows\system32\apphelp.dll
0x00007ff94ba40000 - 0x00007ff94ba8f000 	C:\Windows\AppPatch\AppPatch64\AcGenral.DLL
0x00007ff95a270000 - 0x00007ff95a317000 	C:\Windows\system32\msvcrt.dll
0x00007ff958f90000 - 0x00007ff958fbb000 	C:\Windows\SYSTEM32\SspiCli.dll
0x00007ff95bbc0000 - 0x00007ff95bc11000 	C:\Windows\system32\SHLWAPI.dll
0x00007ff9597b0000 - 0x00007ff959921000 	C:\Windows\system32\USER32.dll
0x00007ff959c30000 - 0x00007ff959da8000 	C:\Windows\system32\ole32.dll
0x00007ff95a390000 - 0x00007ff95b79f000 	C:\Windows\system32\SHELL32.dll
0x00007ff9587c0000 - 0x00007ff9587de000 	C:\Windows\SYSTEM32\USERENV.dll
0x00007ff95ba30000 - 0x00007ff95bad5000 	C:\Windows\system32\ADVAPI32.dll
0x00007ff94da90000 - 0x00007ff94daab000 	C:\Windows\SYSTEM32\MPR.dll
0x00007ff95b7a0000 - 0x00007ff95b8d7000 	C:\Windows\system32\RPCRT4.dll
0x00007ff95bc20000 - 0x00007ff95bc77000 	C:\Windows\SYSTEM32\sechost.dll
0x00007ff95bc80000 - 0x00007ff95be56000 	C:\Windows\SYSTEM32\combase.dll
0x00007ff959930000 - 0x00007ff959a74000 	C:\Windows\system32\GDI32.dll
0x00007ff9591e0000 - 0x00007ff9591f4000 	C:\Windows\SYSTEM32\profapi.dll
0x00007ff9577f0000 - 0x00007ff95788f000 	C:\Windows\SYSTEM32\SHCORE.dll
0x00007ff959ff0000 - 0x00007ff95a024000 	C:\Windows\system32\IMM32.DLL
0x00007ff95b8e0000 - 0x00007ff95ba19000 	C:\Windows\system32\MSCTF.dll
0x00007ff9591a0000 - 0x00007ff9591cf000 	C:\Windows\system32\nvinitx.dll
0x000000000f000000 - 0x000000000f006000 	C:\Program Files\NVIDIA Corporation\CoProcManager\detoured.dll
0x00007ff957060000 - 0x00007ff9570bf000 	C:\Program Files\NVIDIA Corporation\CoProcManager\nvd3d9wrapx.dll
0x00007ff95a030000 - 0x00007ff95a204000 	C:\Windows\system32\SETUPAPI.dll
0x00007ff959300000 - 0x00007ff95934a000 	C:\Windows\system32\CFGMGR32.dll
0x00007ff956c10000 - 0x00007ff956c56000 	C:\Program Files\NVIDIA Corporation\CoProcManager\nvdxgiwrapx.dll
0x00007ff9573c0000 - 0x00007ff95761a000 	C:\Windows\WinSxS\amd64_microsoft.windows.common-controls_6595b64144ccf1df_6.0.9600.17031_none_6242a4b3ecbb55a1\COMCTL32.dll
0x0000000050a10000 - 0x0000000050ae2000 	C:\Program Files\Java\jre1.8.0_20\bin\msvcr100.dll
0x00000000501b0000 - 0x0000000050a08000 	C:\Program Files\Java\jre1.8.0_20\bin\server\jvm.dll
0x00007ff956870000 - 0x00007ff956879000 	C:\Windows\SYSTEM32\WSOCK32.dll
0x00007ff956cd0000 - 0x00007ff956cef000 	C:\Windows\SYSTEM32\WINMM.dll
0x00007ff9597a0000 - 0x00007ff9597a7000 	C:\Windows\system32\PSAPI.DLL
0x00007ff959db0000 - 0x00007ff959e08000 	C:\Windows\system32\WS2_32.dll
0x00007ff956ad0000 - 0x00007ff956afa000 	C:\Windows\SYSTEM32\WINMMBASE.dll
0x00007ff95a380000 - 0x00007ff95a389000 	C:\Windows\system32\NSI.dll
0x00007ff958040000 - 0x00007ff958066000 	C:\Windows\SYSTEM32\DEVOBJ.dll
0x00000000501a0000 - 0x00000000501af000 	C:\Program Files\Java\jre1.8.0_20\bin\verify.dll
0x0000000050170000 - 0x0000000050198000 	C:\Program Files\Java\jre1.8.0_20\bin\java.dll
0x0000000050150000 - 0x0000000050166000 	C:\Program Files\Java\jre1.8.0_20\bin\zip.dll
0x00007ff948fa0000 - 0x00007ff949128000 	C:\Windows\SYSTEM32\dbghelp.dll

VM Arguments:
jvm_args: -Dfile.encoding=UTF-8 -Xbootclasspath:D:\Windows Programs\eclipse\sdk\platforms\android-19\android.jar 
java_command: uet.invincible.wabo.mission.WaboAlgorithm
java_class_path (initial): C:\Users\itvia_000\Desktop\Wabo Bottono\libs\httpasyncclient-cache-4.0.1.jar;C:\Users\itvia_000\Desktop\Wabo Bottono\libs\slf4j-api-1.7.7.jar;C:\Users\itvia_000\Desktop\Wabo Bottono\libs\xmlpull-1.1.3.3.jar;C:\Users\itvia_000\Desktop\Wabo Bottono\libs\robospice-spring-android-1.4.11.jar;C:\Users\itvia_000\Desktop\Wabo Bottono\libs\android-support-v4.jar;C:\Users\itvia_000\Desktop\Wabo Bottono\libs\commons-lang3-3.3.2.jar;C:\Users\itvia_000\Desktop\Wabo Bottono\libs\robospice-cache-1.4.11.jar;C:\Users\itvia_000\Desktop\Wabo Bottono\libs\httpasyncclient-4.0.1.jar;C:\Users\itvia_000\Desktop\Wabo Bottono\libs\slf4j-simple-1.7.7.jar;C:\Users\itvia_000\Desktop\Wabo Bottono\libs\spring-android-rest-template-1.0.1.RELEASE.jar;C:\Users\itvia_000\Desktop\Wabo Bottono\libs\robospice-1.4.11.jar;C:\Users\itvia_000\Desktop\Wabo Bottono\libs\robotconnect-2.0.jar;C:\Users\itvia_000\Desktop\Wabo Bottono\libs\asrlib.jar;C:\Users\itvia_000\Desktop\Wabo Bottono\libs\httpcore-4.3.2.jar;C:\Users\itvia_000\Desktop\Wabo Bottono\libs\spring-android-core-1.0.1.RELEASE.jar;C:\Users\itvia_000\Desktop\Wabo Bottono\libs\jmdns.jar;C:\Users\itvia_000\Desktop\Wabo Bottono\libs\jackson-core-asl-1.9.12.jar;C:\Users\itvia_000\Desktop\Wabo Bottono\libs\jackson-mapper-asl-1.9.12.jar;C:\Users\itvia_000\Desktop\Wabo Bottono\libs\nlplib.jar;C:\Users\itvia_000\Desktop\Wabo Bottono\libs\jsch-0.1.48.jar;C:\Users\itvia_000\Desktop\Wabo Bottono\libs\httpmime-4.3.3.jar;C:\Users\itvia_000\Desktop\Wabo Bottono\bin\classes
Launcher Type: SUN_STANDARD

Environment Variables:
JAVA_HOME=C:\Program Files\Java\jdk1.8.0_05
PATH=C:\ProgramData\Oracle\Java\javapath;C:\Windows\system32;C:\Windows;C:\Windows\System32\Wbem;C:\Windows\System32\WindowsPowerShell\v1.0\;C:\Program Files (x86)\Intel\OpenCL SDK\2.0\bin\x86;C:\Program Files (x86)\Intel\OpenCL SDK\2.0\bin\x64;C:\Program Files\Java\jdk1.8.0_05\bin;C:\MinGW\bin;.;C:\Program Files\Common Files\Autodesk Shared\;C:\Program Files (x86)\Autodesk\Backburner\;C:\Program Files (x86)\Windows Kits\8.1\Windows Performance Toolkit\;C:\Program Files\Microsoft SQL Server\110\Tools\Binn\;C:\Program Files (x86)\MySQL\MySQL Fabric 1.5.2 & MySQL Utilities 1.5.2 1.5\;C:\Program Files (x86)\MySQL\MySQL Fabric 1.5.2 & MySQL Utilities 1.5.2 1.5\Doctrine extensions for PHP\;c:\Program Files (x86)\Microsoft SQL Server\100\Tools\Binn\;c:\Program Files\Microsoft SQL Server\100\Tools\Binn\;c:\Program Files\Microsoft SQL Server\100\DTS\Binn\
USERNAME=Vi?t Anh Vu
OS=Windows_NT
PROCESSOR_IDENTIFIER=Intel64 Family 6 Model 42 Stepping 7, GenuineIntel



---------------  S Y S T E M  ---------------

OS: Windows 8.1 , 64 bit Build 9600 

CPU:total 4 (2 cores per cpu, 2 threads per core) family 6 model 42 stepping 7, cmov, cx8, fxsr, mmx, sse, sse2, sse3, ssse3, sse4.1, sse4.2, popcnt, avx, aes, clmul, ht, tsc, tscinvbit

Memory: 4k page, physical 6193208k(3152628k free), swap 7438392k(2897536k free)

vm_info: Java HotSpot(TM) 64-Bit Server VM (25.20-b23) for windows-amd64 JRE (1.8.0_20-b26), built on Jul 30 2014 13:51:23 by "java_re" with MS VC++ 10.0 (VS2010)

time: Sun Nov 02 00:57:44 2014
elapsed time: 0 seconds (0d 0h 0m 0s)

